…
## NYC Restaurant Inspections

``` r
data("rest_inspec")

rest_inspec |> 
  slice(1:1000)
```

    ## # A tibble: 1,000 × 18
    ##    action          boro  building  camis critical_flag cuisine_description dba  
    ##    <chr>           <chr> <chr>     <int> <chr>         <chr>               <chr>
    ##  1 Violations wer… MANH… 425      4.15e7 Not Critical  Italian             SPIN…
    ##  2 Violations wer… MANH… 37       4.12e7 Critical      Korean              SHIL…
    ##  3 Violations wer… MANH… 15       4.11e7 Not Critical  CafÃ©/Coffee/Tea    CITY…
    ##  4 Violations wer… MANH… 35       4.13e7 Critical      Korean              MADA…
    ##  5 Violations wer… MANH… 1271     5.00e7 Critical      American            THE …
    ##  6 Violations wer… MANH… 155      5.00e7 Not Critical  Donuts              DUNK…
    ##  7 Violations wer… MANH… 1164     5.00e7 Critical      Salads              SWEE…
    ##  8 Violations wer… MANH… 37       4.12e7 Not Critical  Korean              SHIL…
    ##  9 Violations wer… MANH… 299      5.01e7 Not Critical  American            PRET…
    ## 10 Violations wer… MANH… 53       4.04e7 Not Critical  Korean              HAN …
    ## # ℹ 990 more rows
    ## # ℹ 11 more variables: inspection_date <dttm>, inspection_type <chr>,
    ## #   phone <chr>, record_date <dttm>, score <int>, street <chr>,
    ## #   violation_code <chr>, violation_description <chr>, zipcode <int>,
    ## #   grade <chr>, grade_date <dttm>
…
``` r
rest_inspec |> 
  mutate(dba=str_to_sentence(dba)) |> 
  filter(str_detect(dba, "Pizza"))
```

    ## # A tibble: 775 × 18
    ##    action          boro  building  camis critical_flag cuisine_description dba  
    ##    <chr>           <chr> <chr>     <int> <chr>         <chr>               <chr>
    ##  1 Violations wer… MANH… 151      5.00e7 Not Critical  Pizza               Pizz…
    ##  2 Violations wer… MANH… 151      5.00e7 Critical      Pizza               Pizz…
    ##  3 Violations wer… MANH… 151      5.00e7 Critical      Pizza               Pizz…
    ##  4 Violations wer… MANH… 15       5.01e7 Critical      Pizza               & Pi…
    ##  5 Violations wer… MANH… 151      5.00e7 Critical      Pizza               Pizz…
    ##  6 Violations wer… MANH… 151      5.00e7 Not Critical  Pizza               Pizz…
    ##  7 Violations wer… MANH… 15       5.01e7 Critical      Pizza               & Pi…
    ##  8 Violations wer… MANH… 151      5.00e7 Critical      Pizza               Pizz…
    ##  9 Violations wer… MANH… 84       5.00e7 Not Critical  Pizza               Pizza
    ## 10 Violations wer… MANH… 525      5.01e7 Not Critical  Pizza               Pizz…
    ## # ℹ 765 more rows
    ## # ℹ 11 more variables: inspection_date <dttm>, inspection_type <chr>,
    ## #   phone <chr>, record_date <dttm>, score <int>, street <chr>,
    ## #   violation_code <chr>, violation_description <chr>, zipcode <int>,
    ## #   grade <chr>, grade_date <dttm>
…
